DarterTutorial • vanaselja.pkg
…
clean_data Cleans the data of any NAs, deleting entire row where the
NAs are. Cleaning out the NAs is vital in summarizing and quantifying
data. This method is useful in not having to create a pipeline to make
sure that the NAs are omitted from the data.

clean_data(darter_data)

## # A tibble: 74 × 12
##    Lot        Specimen Sex      SL    LL    TV   CPD `Y/N` State County Drainage
##    <chr>         <dbl> <chr> <dbl> <dbl> <dbl> <dbl> <chr> <chr> <chr>  <chr>   
##  1 CU 24632         10 m      44.5    78    20    24 y     TN    Blount Little …
##  2 USNM 1908…        3 m      62.5    68    18    25 y     TN    Blount Little …
##  3 CU 24632          2 m      66.5    73    18    25 y     TN    Blount Little …
##  4 CU 41384          1 m      31      75    18    25 y     TN    Blount Little …
##  5 UMMZ 1315…        9 j      24      65    19    25 y     TN    Cocke  Lwr Pig…
##  6 CU 37688          1 m      46.5    68    19    25 y     TN    Sevier Little …
##  7 UMMZ 1315…        1 m      79      68    19    25 y     TN    Cocke  Lwr Pig…
##  8 CU 24632          7 m      49.5    72    19    25 y     TN    Blount Little …
##  9 UMMZ 1315…        3 f      72      72    19    25 y     TN    Cocke  Lwr Pig…
## 10 CU 23457          7 m      39      71    18    26 y     TN    Sevier Little …
## # ℹ 64 more rows
## # ℹ 1 more variable: Group <chr>

filter_sexes Filters out any sex in a data set. Input the title of
the column for sex in for s_vars and the sex you want to eliminate for
s. The variable that you want to eliminate must be in quotations marks
to ensure that the function looks for the unwanted sex. This helps to
prevent needing a pipeline to dispose of unwanted sexes.

filter_sexes(darter_data, Sex, "m")

## # A tibble: 27 × 12
##    Lot        Specimen Sex      SL    LL    TV   CPD `Y/N` State County Drainage
##    <chr>         <dbl> <chr> <dbl> <dbl> <dbl> <dbl> <chr> <chr> <chr>  <chr>   
##  1 UMMZ 1315…        9 j      24      65    19    25 y     TN    Cocke  Lwr Pig…
##  2 UMMZ 1315…        3 f      72      72    19    25 y     TN    Cocke  Lwr Pig…
##  3 VPI 1543          2 f      86.5    71    18    26 y     TN    Sevier Little …
##  4 CU 24632          5 f      61.5    76    18    26 y     TN    Blount Little …
##  5 CU 41882          3 f      66      67    19    26 y     TN    Sevier Little …
##  6 USNM 1908…        9 f      45.5    72    19    26 y     TN    Blount Little …
##  7 USNM 1908…        5 f      61      74    19    26 y     TN    Blount Little …
##  8 USNM 1908…       11 f      41.5    74    19    26 y     TN    Blount Little …
##  9 UMMZ 1315…        8 j      26      81    19    26 y     TN    Cocke  Lwr Pig…
## 10 CU 41882          2 f      64      71    20    26 y     TN    Sevier Little …
## # ℹ 17 more rows
## # ℹ 1 more variable: Group <chr>
…
